COGS 137 - 02-dplyr
…
Filter rows with filter

Select a subset of rows in a data frame.

Easily filter for many conditions at once.

filter

for crashes in Durham County

bike |>
  filter(County == "Durham")

# A tibble: 253 × 54
     FID OBJECTID AmbulanceR BikeAge_Gr Bike_Age Bike_Alc_D Bike_Dir  Bike_Injur
   <dbl>    <dbl> <chr>      <chr>         <dbl> <chr>      <chr>     <chr>     
 1    18       19 No         <NA>              6 No         Not Appl… C: Possib…
 2    53       54 Yes        50-59            52 No         With Tra… A: Disabl…
 3    56       57 Yes        16-19            18 No         <NA>      C: Possib…
 4   209      210 No         16-19            16 No         Facing T… C: Possib…
 5   228      229 Yes        40-49            40 No         With Tra… B: Eviden…
 6   620      621 Yes        50-59            55 No         With Tra… B: Eviden…
 7   667      668 Yes        60-69            61 No         Not Appl… B: Eviden…
 8   458      459 Yes        60-69            62 No         With Tra… B: Eviden…
 9   576      577 No         40-49            49 No         With Tra… C: Possib…
10   618      619 No         20-24            23 No         With Tra… C: Possib…
# ℹ 243 more rows
# ℹ 46 more variables: Bike_Pos <chr>, Bike_Race <chr>, Bike_Sex <chr>,
#   City <chr>, County <chr>, CrashAlcoh <chr>, CrashDay <chr>,
#   Crash_Date <date>, Crash_Grp <chr>, Crash_Hour <dbl>, Crash_Loc <chr>,
#   Crash_Mont <chr>, Crash_Time <dttm>, Crash_Type <chr>, Crash_Ty_1 <dbl>,
#   Crash_Year <dbl>, Crsh_Sevri <chr>, Developmen <chr>, DrvrAge_Gr <chr>,
#   Drvr_Age <dbl>, Drvr_Alc_D <chr>, Drvr_EstSp <chr>, Drvr_Injur <chr>, …
…
transmute to create a new dataset

You’ll use this much less often than mutate but when you need it, you need it.

bike |> 
  transmute(ID = paste(FID, OBJECTID, sep = "-"))

# A tibble: 5,716 × 1
   ID   
   <chr>
 1 18-19
 2 29-30
 3 33-34
 4 35-36
 5 49-50
 6 53-54
 7 56-57
 8 60-61
 9 63-64
10 66-67
# ℹ 5,706 more rows
…
                      Hit_Run
Crash_Loc                No  Yes
  Intersection         2223  275
  Intersection-Related  252   42
  Location                3    7
  Non-Intersection     2213  462
  Non-Roadway           205   30

or select to exclude variables

bike |>
  select(-OBJECTID)

# A tibble: 5,716 × 53
     FID AmbulanceR BikeAge_Gr Bike_Age Bike_Alc_D Bike_Dir  Bike_Injur Bike_Pos
   <dbl> <chr>      <chr>         <dbl> <chr>      <chr>     <chr>      <chr>   
 1    18 No         <NA>              6 No         Not Appl… C: Possib… Drivewa…
 2    29 Yes        50-59            51 No         With Tra… C: Possib… Travel …
 3    33 No         <NA>             10 No         With Tra… Injury     Travel …
 4    35 Yes        16-19            17 No         <NA>      B: Eviden… Travel …
 5    49 No         <NA>              6 No         Facing T… O: No Inj… Travel …
 6    53 Yes        50-59            52 No         With Tra… A: Disabl… Travel …
 7    56 Yes        16-19            18 No         <NA>      C: Possib… Travel …
 8    60 No         40-49            40 No         Facing T… B: Eviden… Sidewal…
 9    63 Yes        6-10              6 No         Facing T… B: Eviden… Travel …
10    66 Yes        6-10              7 No         <NA>      B: Eviden… Non-Roa…
# ℹ 5,706 more rows
# ℹ 45 more variables: Bike_Race <chr>, Bike_Sex <chr>, City <chr>,
#   County <chr>, CrashAlcoh <chr>, CrashDay <chr>, Crash_Date <date>,
#   Crash_Grp <chr>, Crash_Hour <dbl>, Crash_Loc <chr>, Crash_Mont <chr>,
#   Crash_Time <dttm>, Crash_Type <chr>, Crash_Ty_1 <dbl>, Crash_Year <dbl>,
#   Crsh_Sevri <chr>, Developmen <chr>, DrvrAge_Gr <chr>, Drvr_Age <dbl>,
#   Drvr_Alc_D <chr>, Drvr_EstSp <chr>, Drvr_Injur <chr>, Drvr_Race <chr>, …

or select a range of variables

bike |>
  select(OBJECTID:Bike_Injur)

# A tibble: 5,716 × 7
   OBJECTID AmbulanceR BikeAge_Gr Bike_Age Bike_Alc_D Bike_Dir       Bike_Injur 
      <dbl> <chr>      <chr>         <dbl> <chr>      <chr>          <chr>      
 1       19 No         <NA>              6 No         Not Applicable C: Possibl…
 2       30 Yes        50-59            51 No         With Traffic   C: Possibl…
 3       34 No         <NA>             10 No         With Traffic   Injury     
 4       36 Yes        16-19            17 No         <NA>           B: Evident…
 5       50 No         <NA>              6 No         Facing Traffic O: No Inju…
 6       54 Yes        50-59            52 No         With Traffic   A: Disabli…
 7       57 Yes        16-19            18 No         <NA>           C: Possibl…
 8       61 No         40-49            40 No         Facing Traffic B: Evident…
 9       64 Yes        6-10              6 No         Facing Traffic B: Evident…
10       67 Yes        6-10              7 No         <NA>           B: Evident…
# ℹ 5,706 more rows
…
bike_perc20 <- bike |>
  sample_frac(0.2, replace = FALSE)

dim(bike_perc20)

[1] 1143   54

distinct to filter for unique rows

bike |> 
  select(County, City) |> 
  distinct() |> 
  arrange(County, City)

# A tibble: 360 × 2
   County    City              
   <chr>     <chr>             
 1 Alamance  Alamance          
 2 Alamance  Burlington        
 3 Alamance  Elon College      
 4 Alamance  Gibsonville       
 5 Alamance  Graham            
 6 Alamance  Green Level       
 7 Alamance  Mebane            
 8 Alamance  None - Rural Crash
 9 Alexander None - Rural Crash
10 Alleghany None - Rural Crash
# ℹ 350 more rows

distinct has a .keep_all parameter

bike |> 
  distinct(County, City, .keep_all = TRUE) |> 
  arrange(County, City)

# A tibble: 360 × 54
     FID OBJECTID AmbulanceR BikeAge_Gr Bike_Age Bike_Alc_D Bike_Dir  Bike_Injur
   <dbl>    <dbl> <chr>      <chr>         <dbl> <chr>      <chr>     <chr>     
 1   524      525 Yes        11-15            12 No         <NA>      B: Eviden…
 2    84       85 Yes        20-24            20 No         With Tra… B: Eviden…
 3   571      572 Yes        16-19            16 No         Not Appl… B: Eviden…
 4   509      510 Yes        40-49            43 Yes        With Tra… K: Killed 
 5   855      856 Yes        30-39            30 No         With Tra… A: Disabl…
 6     5        6 Yes        40-49            44 Yes        With Tra… C: Possib…
 7   163      164 Yes        30-39            35 No         Not Appl… C: Possib…
 8    96       97 Yes        30-39            36 No         With Tra… C: Possib…
 9    46       47 Yes        50-59            53 No         With Tra… B: Eviden…
10   485      486 Yes        60-69            62 No         With Tra… C: Possib…
# ℹ 350 more rows
# ℹ 46 more variables: Bike_Pos <chr>, Bike_Race <chr>, Bike_Sex <chr>,
#   City <chr>, County <chr>, CrashAlcoh <chr>, CrashDay <chr>,
#   Crash_Date <date>, Crash_Grp <chr>, Crash_Hour <dbl>, Crash_Loc <chr>,
#   Crash_Mont <chr>, Crash_Time <dttm>, Crash_Type <chr>, Crash_Ty_1 <dbl>,
#   Crash_Year <dbl>, Crsh_Sevri <chr>, Developmen <chr>, DrvrAge_Gr <chr>,
#   Drvr_Age <dbl>, Drvr_Alc_D <chr>, Drvr_EstSp <chr>, Drvr_Injur <chr>, …
…
