COGS 137 - COGS 137 - Winter 2023 - Midterm (Answer Key)
…
Grader Note

Students largely did well here. Most common error was miscalculating the score within category, due to misunderstanding the structure of the data.

Question 3 (1 point)

Which company in the reputation.csv dataset has the “best” average (mean) rank across all seven categories?

reputation |> 
  group_by(company) |> 
  summarize(avg_rank = mean(rank)) |> 
  arrange(avg_rank)

# A tibble: 100 × 2
   company                  avg_rank
   <chr>                       <dbl>
 1 Trader Joe's                 4.86
 2 The Hershey Company          5   
 3 Patagonia                    6.71
 4 HEB Grocery                  7   
 5 Samsung                      8.86
 6 Wegmans                     10.4 
 7 Amazon.com                  12.1 
 8 Toyota Motor Corporation    12.4 
 9 Honda Motor Company         13.1 
10 Microsoft                   13.1 
# … with 90 more rows
Trader Joe’s has the highest average ranking.

Grader Note

Students largely did well here. Most common error was misreading the question.

Question 4 (1 point)

Which company had the biggest increase in rank from 2021 to 2022?

poll |> 
  filter(year==2021) |> 
  arrange(desc(change))

# A tibble: 100 × 8
   company               industry       2022_…¹ 2022_…² change  year  rank    rq
   <chr>                 <chr>            <dbl>   <dbl>  <dbl> <dbl> <dbl> <dbl>
 1 The Home Depot        Retail              16    78.9     29  2021    45  75.4
 2 Google                Tech                31    77.8     29  2021    60  73.3
 3 IBM                   Tech                11    79.5     28  2021    39  76.3
 4 Samsung               Tech                 6    80.5     25  2021    31  77.5
 5 Sony                  Tech                10    79.6     24  2021    34  77.3
 6 Starbucks Corporation Food & Bevera…      43    76.6     22  2021    65  72.3
 7 Microsoft             Tech                15    79       21  2021    36  76.8
 8 Adidas                Retail              29    77.9     20  2021    49  75.1
 9 General Motors        Automotive          51    75.4     17  2021    68  72  
10 Yum! Brands           Food & Bevera…      53    75.3     17  2021    70  71.5
# … with 90 more rows, and abbreviated variable names ¹​`2022_rank`, ²​`2022_rq`

# if "change" column not noticed 
poll |> 
  filter(year==2021) |> 
  mutate(rank_diff = rank - `2022_rank`) |> 
  arrange(desc(rank_diff))

# A tibble: 100 × 9
   company              indus…¹ 2022_…² 2022_…³ change  year  rank    rq rank_…⁴
   <chr>                <chr>     <dbl>   <dbl>  <dbl> <dbl> <dbl> <dbl>   <dbl>
 1 The Home Depot       Retail       16    78.9     29  2021    45  75.4      29
 2 Google               Tech         31    77.8     29  2021    60  73.3      29
 3 IBM                  Tech         11    79.5     28  2021    39  76.3      28
 4 Samsung              Tech          6    80.5     25  2021    31  77.5      25
 5 Sony                 Tech         10    79.6     24  2021    34  77.3      24
 6 Starbucks Corporati… Food &…      43    76.6     22  2021    65  72.3      22
 7 Microsoft            Tech         15    79       21  2021    36  76.8      21
 8 Adidas               Retail       29    77.9     20  2021    49  75.1      20
 9 General Motors       Automo…      51    75.4     17  2021    68  72        17
10 Yum! Brands          Food &…      53    75.3     17  2021    70  71.5      17
# … with 90 more rows, and abbreviated variable names ¹​industry, ²​`2022_rank`,
#   ³​`2022_rq`, ⁴​rank_diff
…
