CS02: Right-To-Carry (Data)
…
```r
STATE_FIPS <- STATE_FIPS |>
  rename(STATEFP = `State\n(FIPS)`,
         STATE = Name) |>
  select(STATEFP, STATE) |>
  filter(STATEFP != "00")

STATE_FIPS
```

```
## # A tibble: 51 × 2
##   STATEFP STATE        
##   <chr>   <chr>        
## 1 09      Connecticut  
## 2 23      Maine        
## 3 25      Massachusetts
## 4 33      New Hampshire
## 5 44      Rhode Island 
## 6 50      Vermont      
## # … with 45 more rows
```
…
names(ue_rate_data) <- ue_rate_names
```
]
.panel[.panel-name[Data]

```r
head(ue_rate_data)[1]
```

```
## $Alabama
## # A tibble: 44 × 14
##    Year   Jan   Feb   Mar   Apr   May   Jun   Jul   Aug   Sep
##   <dbl> <dbl> <dbl> <dbl> <dbl> <dbl> <dbl> <dbl> <dbl> <dbl>
## 1  1977   7.5   9     7.7   7.2   6.8   8.6   8     7.8   6.7
## 2  1978   7.1   6.9   6.2   5.4   5.1   6.9   6.7   6.7   6.5
## 3  1979   6.7   7.5   6.9   6.6   6.4   8.4   7.7   7.8   7.1
## 4  1980   7.7   7.8   7.4   7.4   8.4   9.7  10.4  10.3   9.3
## 5  1981  10    10.3   9.5   9.1   9.4  11.1  10.4  10.9  10.8
## 6  1982  13.2  13.2  12.9  12.6  12.8  14.5  14.7  14.8  14.7
## # … with 38 more rows, and 4 more variables: Oct <dbl>,
## #   Nov <dbl>, Dec <dbl>, Annual <dbl>
```
…
```r
ue_rate_data <- ue_rate_data |>
  map_df(bind_rows, .id = "STATE") |>
  select(STATE, Year, Annual) |>
  rename("YEAR" = Year,
         "VALUE" = Annual) |>
  mutate(VARIABLE = "Unemployment_rate")

ue_rate_data
```

```
## # A tibble: 2,244 × 4
##   STATE    YEAR VALUE VARIABLE         
##   <chr>   <dbl> <dbl> <chr>            
## 1 Alabama  1977   7.3 Unemployment_rate
## 2 Alabama  1978   6.4 Unemployment_rate
## 3 Alabama  1979   7.2 Unemployment_rate
## 4 Alabama  1980   8.9 Unemployment_rate
## 5 Alabama  1981  10.6 Unemployment_rate
## 6 Alabama  1982  14.1 Unemployment_rate
## # … with 2,238 more rows
```
…
```r
dem_80_89 <- dem_80_89 |>
  pivot_longer(cols=contains("years"),
               names_to = "AGE_GROUP",
               values_to = "SUB_POP_temp") |>
  group_by(YEAR, STATE, AGE_GROUP, SEX, RACE) |>
  summarize(SUB_POP = sum(SUB_POP_temp), .groups="drop")

dem_80_89
```

```
## # A tibble: 55,080 × 6
##    YEAR STATE   AGE_GROUP      SEX    RACE  SUB_POP
##   <dbl> <chr>   <chr>          <chr>  <chr>   <dbl>
## 1  1980 Alabama 10 to 14 years female Black   50108
## 2  1980 Alabama 10 to 14 years female Other     805
## 3  1980 Alabama 10 to 14 years female White  109066
## 4  1980 Alabama 10 to 14 years male   Black   50768
## 5  1980 Alabama 10 to 14 years male   Other     826
## 6  1980 Alabama 10 to 14 years male   White  115988
## # … with 55,074 more rows
```
…
### Wrangle: Population Data

.panelset[
.panel[.panel-name[1977-79]

```r
pop_77_79 <- dem_77_79 |>
  group_by(YEAR, STATE) |>
  summarize(TOT_POP = sum(SUB_POP), .groups = "drop") 

pop_77_79 
```

```
## # A tibble: 153 × 3
##    YEAR STATE       TOT_POP
##   <dbl> <chr>         <dbl>
## 1  1977 Alabama     3782571
## 2  1977 Alaska       397220
## 3  1977 Arizona     2427296
## 4  1977 Arkansas    2207195
## 5  1977 California 22350332
## 6  1977 Colorado    2696179
## # … with 147 more rows
```
…
.panelset[
.panel[.panel-name[77-79]

```r
dem_77_79 <- dem_77_79 |>
  left_join(pop_77_79, by = c("YEAR", "STATE")) |> 
  mutate(PERC_SUB_POP = (SUB_POP/TOT_POP)*100) |>
  select(-SUB_POP, -TOT_POP)

dem_77_79
```

```
## # A tibble: 16,524 × 6
##    YEAR STATE   SEX   RACE  AGE_GROUP      PERC_SUB_POP
##   <dbl> <chr>   <chr> <chr> <chr>                 <dbl>
## 1  1977 Alabama male  White Under 5 years          2.61
## 2  1977 Alabama male  White 5 to 9 years           3.00
## 3  1977 Alabama male  White 10 to 14 years         3.25
## 4  1977 Alabama male  White 15 to 19 years         3.58
## 5  1977 Alabama male  White 20 to 24 years         3.33
## 6  1977 Alabama male  White 25 to 29 years         2.95
## # … with 16,518 more rows
```
…
]
.panel[.panel-name[90s]

```r
dem_90_99 <- dem_90_99 |>
  left_join(pop_90_99, by = c("YEAR", "STATE")) |>
  mutate(PERC_SUB_POP = (SUB_POP/TOT_POP)*100) |>
  select(-SUB_POP, -TOT_POP)

dem_90_99
```

```
## # A tibble: 55,080 × 6
##    YEAR STATE   AGE_GROUP     SEX    RACE  PERC_SUB_POP
##   <dbl> <chr>   <fct>         <chr>  <chr>        <dbl>
## 1  1990 Alabama Under 5 years Female Black       1.12  
## 2  1990 Alabama Under 5 years Female Other       0.0347
## 3  1990 Alabama Under 5 years Female White       2.28  
## 4  1990 Alabama Under 5 years Male   Black       1.15  
## 5  1990 Alabama Under 5 years Male   Other       0.0336
## 6  1990 Alabama Under 5 years Male   White       2.43  
## # … with 55,074 more rows
```

]
.panel[.panel-name[00s]

```r
dem_00_10 <- dem_00_10 |>
  left_join(pop_00_10, by = c("YEAR", "STATE")) |>
  mutate(PERC_SUB_POP = (SUB_POP/TOT_POP)*100) |>
 select(-SUB_POP, -TOT_POP)

dem_00_10
```

```
## # A tibble: 60,588 × 6
##    YEAR AGE_GROUP     STATE   SEX    RACE  PERC_SUB_POP
##   <dbl> <fct>         <chr>   <fct>  <fct>        <dbl>
## 1  2000 Under 5 years Alabama Male   White       2.24  
## 2  2000 Under 5 years Alabama Male   Black       1.05  
## 3  2000 Under 5 years Alabama Male   Other       0.101 
## 4  2000 Under 5 years Alabama Female White       2.12  
## 5  2000 Under 5 years Alabama Female Black       1.03  
## 6  2000 Under 5 years Alabama Female Other       0.0995
## # … with 60,582 more rows
```
…
```r
dem_DONOHUE <- dem_DONOHUE |>
  mutate(AGE_GROUP = str_replace_all(string = AGE_GROUP, 
                                     pattern = " ", 
                                     replacement = "_")) |>
  group_by(YEAR, STATE, RACE, SEX, AGE_GROUP) |>
  summarize(PERC_SUB_POP = sum(PERC_SUB_POP), .groups = "drop")

dem_DONOHUE
```

```
## # A tibble: 9,486 × 6
##    YEAR STATE   RACE  SEX   AGE_GROUP      PERC_SUB_POP
##   <dbl> <chr>   <chr> <chr> <chr>                 <dbl>
## 1  1980 Alabama Black Male  15_to_19_years       1.46  
## 2  1980 Alabama Black Male  20_to_39_years       3.36  
## 3  1980 Alabama Other Male  15_to_19_years       0.0213
## 4  1980 Alabama Other Male  20_to_39_years       0.0861
## 5  1980 Alabama White Male  15_to_19_years       3.40  
## 6  1980 Alabama White Male  20_to_39_years      11.6   
## # … with 9,480 more rows
```
]
.panel[.panel-name[3]

```r
dem_DONOHUE <- dem_DONOHUE |>
  unite(col = "VARIABLE", RACE, SEX, AGE_GROUP, sep = "_") |>
  rename("VALUE" = PERC_SUB_POP)

dem_DONOHUE
```

```
## # A tibble: 9,486 × 4
##    YEAR STATE   VARIABLE                    VALUE
##   <dbl> <chr>   <chr>                       <dbl>
## 1  1980 Alabama Black_Male_15_to_19_years  1.46  
## 2  1980 Alabama Black_Male_20_to_39_years  3.36  
## 3  1980 Alabama Other_Male_15_to_19_years  0.0213
## 4  1980 Alabama Other_Male_20_to_39_years  0.0861
## 5  1980 Alabama White_Male_15_to_19_years  3.40  
## 6  1980 Alabama White_Male_20_to_39_years 11.6   
## # … with 9,480 more rows
```
…
ps_data
```

```
## # A tibble: 2,242 × 3
##   data_year state_abbr officer_state_total
##       <dbl> <chr>                    <dbl>
## 1      1977 AK                         544
## 2      1977 AL                        7380
## 3      1977 AR                        3344
## 4      1977 AS                           0
## 5      1977 AZ                        6414
## 6      1977 CA                       65596
## # … with 2,236 more rows
```
…
ps_data <- ps_data |> 
  left_join(state_abb_data, by = "state_abbr") |>
  select(-state_abbr) |> 
  rename(YEAR = "data_year",
         VALUE = "officer_state_total") |>
  mutate(VARIABLE = "officer_state_total")

ps_data
```

```
## # A tibble: 1,938 × 4
##    YEAR VALUE STATE      VARIABLE           
##   <dbl> <dbl> <chr>      <chr>              
## 1  1977   544 Alaska     officer_state_total
## 2  1977  7380 Alabama    officer_state_total
## 3  1977  3344 Arkansas   officer_state_total
## 4  1977  6414 Arizona    officer_state_total
## 5  1977 65596 California officer_state_total
## 6  1977  7337 Colorado   officer_state_total
## # … with 1,932 more rows
```
…
