CS02: Right-To-Carry (Analysis)
…
---

## Model Output: DONOHUE

```r
DONOHUE_OUTPUT_TIDY <- tidy(DONOHUE_OUTPUT, conf.int = 0.95)
DONOHUE_OUTPUT_TIDY
```

```
## # A tibble: 11 × 7
##   term   estimate std.error statistic  p.value conf.low conf.high
##   <chr>     <dbl>     <dbl>     <dbl>    <dbl>    <dbl>     <dbl>
## 1 RTC_L…   0.0240    0.0170     1.42  1.56e- 1 -0.00919    0.0573
## 2 White…   0.0104    0.0282     0.367 7.13e- 1 -0.0449     0.0656
## 3 White…   0.0293    0.0100     2.93  3.50e- 3  0.00968    0.0490
## 4 Black…  -0.0597    0.0578    -1.03  3.02e- 1 -0.173      0.0536
## 5 Black…   0.123     0.0195     6.34  3.17e-10  0.0853     0.162 
## 6 Other…   0.674     0.114      5.92  4.15e- 9  0.451      0.897 
## # … with 5 more rows
```
…
---

## Model Output: LOTT

```r
LOTT_OUTPUT_TIDY <- tidy(LOTT_OUTPUT, conf.int = 0.95)
LOTT_OUTPUT_TIDY
```

```
## # A tibble: 41 × 7
##   term   estimate std.error statistic  p.value conf.low conf.high
##   <chr>     <dbl>     <dbl>     <dbl>    <dbl>    <dbl>     <dbl>
## 1 RTC_L… -0.0518     0.0162    -3.20  1.39e- 3  -0.0835   -0.0201
## 2 White…  0.636      0.149      4.26  2.24e- 5   0.343     0.929 
## 3 White…  0.00698    0.0670     0.104 9.17e- 1  -0.124     0.138 
## 4 White…  0.261      0.0813     3.21  1.38e- 3   0.101     0.420 
## 5 White…  0.0168     0.0814     0.206 8.37e- 1  -0.143     0.176 
## 6 White… -0.459      0.0625    -7.35  3.60e-13  -0.582    -0.337 
## # … with 35 more rows
```
…
---

## LOOCV: splits (Donohue)

```r
## split data
set.seed(124)
DONOHUE_splits <- d_panel_DONOHUE |> loo_cv()
DONOHUE_splits
```

```
## # Leave-one-out cross-validation 
## # A tibble: 1,364 × 2
##   splits           id       
##   <list>           <chr>    
## 1 <split [1363/1]> Resample1
## 2 <split [1363/1]> Resample2
## 3 <split [1363/1]> Resample3
## 4 <split [1363/1]> Resample4
## 5 <split [1363/1]> Resample5
## 6 <split [1363/1]> Resample6
## # … with 1,358 more rows
```
…
```r
# combine into nice table
vif_DONOHUE <- vif_DONOHUE |>
  as_tibble() |>
  cbind(names(vif_DONOHUE)) |>
  as_tibble()
colnames(vif_DONOHUE) <- c("VIF", "Variable")
vif_DONOHUE
```

```
## # A tibble: 11 × 2
##     VIF Variable                 
##   <dbl> <chr>                    
## 1  1.11 RTC_LAWTRUE              
## 2  1.15 White_Male_15_to_19_years
## 3  1.72 White_Male_20_to_39_years
## 4  1.34 Black_Male_15_to_19_years
## 5  1.66 Black_Male_20_to_39_years
## 6  1.58 Other_Male_15_to_19_years
## # … with 5 more rows
```
…
```r
# clean up names
vif_LOTT |> 
  mutate(Variable = str_replace(string = Variable,
                                pattern = "RTC_LAW",
                                replacement = "RTC_LAWTRUE"))
```

```
## # A tibble: 41 × 2
##      VIF Variable                   
##    <dbl> <chr>                      
## 1   1.61 RTC_LAWTRUE                
## 2 121.   White_Female_10_to_19_years
## 3  47.2  White_Female_20_to_29_years
## 4  49.6  White_Female_30_to_39_years
## 5  36.3  White_Female_40_to_49_years
## 6  34.2  White_Female_50_to_64_years
## # … with 35 more rows
```

```r
vif_LOTT
```

```
## # A tibble: 41 × 2
##      VIF Variable                   
##    <dbl> <chr>                      
## 1   1.61 RTC_LAW                    
## 2 121.   White_Female_10_to_19_years
## 3  47.2  White_Female_20_to_29_years
## 4  49.6  White_Female_30_to_39_years
## 5  36.3  White_Female_40_to_49_years
## 6  34.2  White_Female_50_to_64_years
## # … with 35 more rows
```
…
