Hypothesis testing
…
## Using `infer` to generate the null distribution

.small[

```r
null_dist <- organ_donor %>%
  specify(response = outcome, success = "complication") %>%
  hypothesize(null = "point", p = c("complication" = 0.10, "no complication" = 0.90)) %>% 
  generate(reps = 100, type = "simulate") %>% 
  calculate(stat = "prop")
```
]

```
## # A tibble: 100 x 2
##    replicate  stat
##        <dbl> <dbl>
##  1         1 0.161
##  2         2 0.081
##  3         3 0.161
##  4         4 0.145
##  5         5 0.097
##  6         6 0.145
##  7         7 0.081
##  8         8 0.097
##  9         9 0.161
## 10        10 0.048
## # … with 90 more rows
```
…
