COGS 137 - Lab 02 - Wrangling (Ans)
…
The 2000s.

(Note: we want to be sure to only count each storm once. Could also arrange by desc(n) to have 2000 at top.)

Exercise 7

Among the subset of storms occurring in your lifetime, which storm lasted the longest? Include your code and explain your answer.

my_storms |>  
  group_by(name, year) |> 
  count() |> 
  arrange(desc(n))

# A tibble: 532 × 3
# Groups:   name, year [532]
   name      year     n
   <chr>    <dbl> <int>
 1 Nadine    2012    96
 2 Ivan      2004    94
 3 Kyle      2002    90
 4 Leslie    2018    89
 5 Paulette  2020    88
 6 Alberto   2000    87
 7 Jose      2017    85
 8 Nicholas  2003    80
 9 Florence  2018    79
10 Marilyn   1995    79
# ℹ 522 more rows
…
