COGS 137 - Lab 03 - Data Visualization (Ans)
…
Data wrangling and visualization

Which major has the lowest unemployment rate?

college_recent_grads |>
  arrange(unemployment_rate) |>
  select(rank, major, unemployment_rate)

# A tibble: 173 × 3
    rank major                                      unemployment_rate
   <dbl> <chr>                                                  <dbl>
 1    53 Mathematics And Computer Science                     0      
 2    74 Military Technologies                                0      
 3    84 Botany                                               0      
 4   113 Soil Science                                         0      
 5   121 Educational Administration And Supervision           0      
 6    15 Engineering Mechanics Physics And Science            0.00633
 7    20 Court Reporting                                      0.0117 
 8   120 Mathematics Teacher Education                        0.0162 
 9     1 Petroleum Engineering                                0.0184 
10    65 General Agriculture                                  0.0196 
# … with 163 more rows

Display only 4 decimal places using mutate and round:

college_recent_grads |>
  arrange(unemployment_rate) |>
  select(rank, major, unemployment_rate) |>
  mutate(unemployment_rate = round(unemployment_rate, digits = 4))

# A tibble: 173 × 3
    rank major                                      unemployment_rate
   <dbl> <chr>                                                  <dbl>
 1    53 Mathematics And Computer Science                      0     
 2    74 Military Technologies                                 0     
 3    84 Botany                                                0     
 4   113 Soil Science                                          0     
 5   121 Educational Administration And Supervision            0     
 6    15 Engineering Mechanics Physics And Science             0.0063
 7    20 Court Reporting                                       0.0117
 8   120 Mathematics Teacher Education                         0.0162
 9     1 Petroleum Engineering                                 0.0184
10    65 General Agriculture                                   0.0196
# … with 163 more rows
…
