CS1: Youth Connection (Data)
…
--

```r
asian_sub_2017 <- make_rows(asian_sub_2017) 
asian_sub_2017
```

```
## # A tibble: 33 × 1
##    value             
##    <chr>             
##  1 United States 11.5
##  2 Male 11.8         
##  3 Female 11.1       
##  4 ASIAN 6.8         
##  5 Asian Male 65     
##  6 Asian Female 67   
##  7 CHINESE 43        
##  8 Chinese Male AT   
##  9 Chinese Female 3.9
## 10 VIETNAMESE 5.5    
## # … with 23 more rows
```
…
---

## Combine Asian subgroups data

```r
asian_sub_2017 <- bind_rows(asian_sub_2017_A, 
                            asian_sub_2017_B,
                            asian_sub_2017_C)
asian_sub_2017
```

```
## # A tibble: 28 × 1
##    value             
##    <chr>             
##  1 United States 11.5
##  2 Male 11.8         
##  3 Female 11.1       
##  4 ASIAN 6.6         
##  5 Asian Male 6.5    
##  6 Asian Female 6.7  
##  7 CHINESE 4.3       
##  8 Chinese Male 4.7  
##  9 Chinese Female 3.9
## 10 VIETNAMESE 5.5    
## # … with 18 more rows
```
…
```r
asian_sub_2017 <- clean_table(table = asian_sub_2017)
```

```
## Warning: Expected 2 pieces. Missing pieces filled with `NA` in 3 rows [17, 22,
## 28].
```

```r
asian_sub_2017
```

```
## # A tibble: 25 × 4
##    Group          Percent Race_Ethnicity Gender
##    <chr>            <dbl> <chr>          <chr> 
##  1 United States     11.5 All_races      All   
##  2 Male              11.8 All_races      Male  
##  3 Female            11.1 All_races      Female
##  4 Asian              6.6 Asian          All   
##  5 Asian Male         6.5 Asian          Male  
##  6 Asian Female       6.7 Asian          Female
##  7 Chinese            4.3 Chinese        All   
##  8 Chinese Male       4.7 Chinese        Male  
##  9 Chinese Female     3.9 Chinese        Female
## 10 Vietnamese         5.5 Vietnamese     All   
## # … with 15 more rows
```
…
```r
asian_sub_2018 <- str_c(asian_sub_2018_A, asian_sub_2018_B)
asian_sub_2018 <- make_rows(asian_sub_2018)
asian_sub_2018
```

```
## # A tibble: 23 × 1
##    value         
##    <chr>         
##  1 "CHINESE : 41"
##  2 "Men 4.5"     
##  3 "Women : 3.7" 
##  4 ""            
##  5 "INDIAN 5.4"  
##  6 "Men 4.7"     
##  7 "Women : 6.1" 
##  8 ""            
##  9 "KOREAN : 5.5"
## 10 "Men 5.6"     
## # … with 13 more rows
```
…
