COGS 137 - 11-cs01-data
…
STATE_FIPS <- STATE_FIPS |>
  rename(STATEFP = `State\n(FIPS)`,
         STATE = Name) |>
  select(STATEFP, STATE) |>
  filter(STATEFP != "00")

STATE_FIPS

# A tibble: 51 × 2
   STATEFP STATE        
   <chr>   <chr>        
 1 09      Connecticut  
 2 23      Maine        
 3 25      Massachusetts
 4 33      New Hampshire
 5 44      Rhode Island 
 6 50      Vermont      
 7 34      New Jersey   
 8 36      New York     
 9 42      Pennsylvania 
10 17      Illinois     
# … with 41 more rows
…
ue_rate_names <- list.files(recursive = TRUE,
                          path = "data/raw/Unemployment",
                          pattern = "*.xlsx",
                          full.names = TRUE) |>
map(~read_xlsx(., range = "B4:B6")) |>
  map(c(1,2)) |>
unlist()

names(ue_rate_data) <- ue_rate_names

head(ue_rate_data)[1]

$Alabama
# A tibble: 44 × 14
    Year   Jan   Feb   Mar   Apr   May   Jun   Jul   Aug   Sep   Oct   Nov   Dec
   <dbl> <dbl> <dbl> <dbl> <dbl> <dbl> <dbl> <dbl> <dbl> <dbl> <dbl> <dbl> <dbl>
 1  1977   7.5   9     7.7   7.2   6.8   8.6   8     7.8   6.7   6.3   6.3   6  
 2  1978   7.1   6.9   6.2   5.4   5.1   6.9   6.7   6.7   6.5   6.3   6.3   6.5
 3  1979   6.7   7.5   6.9   6.6   6.4   8.4   7.7   7.8   7.1   7.2   6.9   6.7
 4  1980   7.7   7.8   7.4   7.4   8.4   9.7  10.4  10.3   9.3   9.6   9.4   9  
 5  1981  10    10.3   9.5   9.1   9.4  11.1  10.4  10.9  10.8  11.7  11.5  11.8
 6  1982  13.2  13.2  12.9  12.6  12.8  14.5  14.7  14.8  14.7  15.1  15.4  15.3
 7  1983  16    16    14.5  13.7  13.3  14.6  13.9  13.8  13.2  12.8  12.1  11.8
 8  1984  12.5  12.4  11.4  10.8  10.1  11.3  11.5  11.3  10.8  10.2   9.7  10.1
 9  1985  10.7  10.5   9.8   8.7   8.4   9.6   9.2   8.8   8.6   8.6   8.4   8.7
10  1986   9.3  10.4  10.1   9.4   9.4  10.5   9.7   9.6   9.7   9.7   9.6   9  
# … with 34 more rows, and 1 more variable: Annual <dbl>

ue_rate_data <- ue_rate_data |>
  map_df(bind_rows, .id = "STATE") |>
  select(STATE, Year, Annual) |>
  rename("YEAR" = Year,
         "VALUE" = Annual) |>
  mutate(VARIABLE = "Unemployment_rate")

ue_rate_data

# A tibble: 2,244 × 4
   STATE    YEAR VALUE VARIABLE         
   <chr>   <dbl> <dbl> <chr>            
 1 Alabama  1977   7.3 Unemployment_rate
 2 Alabama  1978   6.4 Unemployment_rate
 3 Alabama  1979   7.2 Unemployment_rate
 4 Alabama  1980   8.9 Unemployment_rate
 5 Alabama  1981  10.6 Unemployment_rate
 6 Alabama  1982  14.1 Unemployment_rate
 7 Alabama  1983  13.8 Unemployment_rate
 8 Alabama  1984  11   Unemployment_rate
 9 Alabama  1985   9.2 Unemployment_rate
10 Alabama  1986   9.7 Unemployment_rate
# … with 2,234 more rows
…
dem_80_89 <- dem_80_89 |>
  pivot_longer(cols=contains("years"),
               names_to = "AGE_GROUP",
               values_to = "SUB_POP_temp") |>
  group_by(YEAR, STATE, AGE_GROUP, SEX, RACE) |>
  summarize(SUB_POP = sum(SUB_POP_temp), .groups="drop")

dem_80_89

# A tibble: 55,080 × 6
    YEAR STATE   AGE_GROUP      SEX    RACE  SUB_POP
   <dbl> <chr>   <chr>          <chr>  <chr>   <dbl>
 1  1980 Alabama 10 to 14 years female Black   50108
 2  1980 Alabama 10 to 14 years female Other     805
 3  1980 Alabama 10 to 14 years female White  109066
 4  1980 Alabama 10 to 14 years male   Black   50768
 5  1980 Alabama 10 to 14 years male   Other     826
 6  1980 Alabama 10 to 14 years male   White  115988
 7  1980 Alabama 15 to 19 years female Black   58428
 8  1980 Alabama 15 to 19 years female Other     743
 9  1980 Alabama 15 to 19 years female White  126783
10  1980 Alabama 15 to 19 years male   Black   56808
# … with 55,070 more rows
…
Wrangle: Population Data

77-79
80s
90s
00s

pop_77_79 <- dem_77_79 |>
  group_by(YEAR, STATE) |>
  summarize(TOT_POP = sum(SUB_POP), .groups = "drop") 

pop_77_79 

# A tibble: 153 × 3
    YEAR STATE                 TOT_POP
   <dbl> <chr>                   <dbl>
 1  1977 Alabama               3782571
 2  1977 Alaska                 397220
 3  1977 Arizona               2427296
 4  1977 Arkansas              2207195
 5  1977 California           22350332
 6  1977 Colorado              2696179
 7  1977 Connecticut           3088745
 8  1977 Delaware               594815
 9  1977 District of Columbia   681766
10  1977 Florida               8888806
# … with 143 more rows
…
77-79
80s
90s
00s
Idea

dem_77_79 <- dem_77_79 |>
  left_join(pop_77_79, by = c("YEAR", "STATE")) |> 
  mutate(PERC_SUB_POP = (SUB_POP/TOT_POP)*100) |>
  select(-SUB_POP, -TOT_POP) |>
  mutate(SEX = str_to_title(SEX))

dem_77_79

# A tibble: 16,524 × 6
    YEAR STATE   SEX   RACE  AGE_GROUP      PERC_SUB_POP
   <dbl> <chr>   <chr> <chr> <chr>                 <dbl>
 1  1977 Alabama Male  White Under 5 years          2.61
 2  1977 Alabama Male  White 5 to 9 years           3.00
 3  1977 Alabama Male  White 10 to 14 years         3.25
 4  1977 Alabama Male  White 15 to 19 years         3.58
 5  1977 Alabama Male  White 20 to 24 years         3.33
 6  1977 Alabama Male  White 25 to 29 years         2.95
 7  1977 Alabama Male  White 30 to 34 years         2.66
 8  1977 Alabama Male  White 35 to 39 years         2.14
 9  1977 Alabama Male  White 40 to 44 years         1.98
10  1977 Alabama Male  White 45 to 49 years         2.02
# … with 16,514 more rows

dem_80_89 <- dem_80_89 |>
  left_join(pop_80_89, by = c("YEAR", "STATE")) |>
  mutate(PERC_SUB_POP = (SUB_POP/TOT_POP)*100) |>
  select(-SUB_POP, -TOT_POP) |>
  mutate(SEX = str_to_title(SEX))

dem_90_99 <- dem_90_99 |>
  left_join(pop_90_99, by = c("YEAR", "STATE")) |>
  mutate(PERC_SUB_POP = (SUB_POP/TOT_POP)*100) |>
  select(-SUB_POP, -TOT_POP)

dem_90_99

# A tibble: 55,080 × 6
    YEAR STATE   AGE_GROUP     SEX    RACE  PERC_SUB_POP
   <dbl> <chr>   <fct>         <chr>  <chr>        <dbl>
 1  1990 Alabama Under 5 years Female Black       1.12  
 2  1990 Alabama Under 5 years Female Other       0.0347
 3  1990 Alabama Under 5 years Female White       2.28  
 4  1990 Alabama Under 5 years Male   Black       1.15  
 5  1990 Alabama Under 5 years Male   Other       0.0336
 6  1990 Alabama Under 5 years Male   White       2.43  
 7  1990 Alabama 5 to 9 years  Female Black       1.14  
 8  1990 Alabama 5 to 9 years  Female Other       0.0419
 9  1990 Alabama 5 to 9 years  Female White       2.29  
10  1990 Alabama 5 to 9 years  Male   Black       1.16  
# … with 55,070 more rows

dem_00_10 <- dem_00_10 |>
  left_join(pop_00_10, by = c("YEAR", "STATE")) |>
  mutate(PERC_SUB_POP = (SUB_POP/TOT_POP)*100) |>
  select(-SUB_POP, -TOT_POP)

dem_00_10

# A tibble: 60,588 × 6
    YEAR AGE_GROUP     STATE   SEX    RACE  PERC_SUB_POP
   <dbl> <fct>         <chr>   <fct>  <fct>        <dbl>
 1  2000 Under 5 years Alabama Male   White       2.24  
 2  2000 Under 5 years Alabama Male   Black       1.05  
 3  2000 Under 5 years Alabama Male   Other       0.101 
 4  2000 Under 5 years Alabama Female White       2.12  
 5  2000 Under 5 years Alabama Female Black       1.03  
 6  2000 Under 5 years Alabama Female Other       0.0995
 7  2000 Under 5 years Alaska  Male   White       2.35  
 8  2000 Under 5 years Alaska  Male   Black       0.165 
 9  2000 Under 5 years Alaska  Male   Other       1.37  
10  2000 Under 5 years Alaska  Female White       2.26  
# … with 60,578 more rows
…
dem_DONOHUE

# A tibble: 10,404 × 4
    YEAR STATE   VARIABLE                    VALUE
   <dbl> <chr>   <chr>                       <dbl>
 1  1977 Alabama Black_Male_15_to_19_years  1.55  
 2  1977 Alabama Black_Male_20_to_39_years  3.04  
 3  1977 Alabama Other_Male_15_to_19_years  0.0178
 4  1977 Alabama Other_Male_20_to_39_years  0.0642
 5  1977 Alabama White_Male_15_to_19_years  3.58  
 6  1977 Alabama White_Male_20_to_39_years 11.1   
 7  1977 Alaska  Black_Male_15_to_19_years  0.163 
 8  1977 Alaska  Black_Male_20_to_39_years  0.968 
 9  1977 Alaska  Other_Male_15_to_19_years  1.12  
10  1977 Alaska  Other_Male_20_to_39_years  2.73  
# … with 10,394 more rows
…
population_data <- bind_rows(pop_77_79,
                             pop_80_89,
                             pop_90_99,
                             pop_00_10)

population_data <- population_data |>
  mutate(VARIABLE = "Population") |>
  rename("VALUE" = TOT_POP)

Wrangling: Police staffing

# the provided dataset has already had a bit of wrangling done for you
ps_data

# A tibble: 2,242 × 3
   data_year state_abbr officer_state_total
       <dbl> <chr>                    <dbl>
 1      1977 AK                         544
 2      1977 AL                        7380
 3      1977 AR                        3344
 4      1977 AS                           0
 5      1977 AZ                        6414
 6      1977 CA                       65596
 7      1977 CO                        7337
 8      1977 CT                        6051
 9      1977 CZ                           0
10      1977 DC                        4751
# … with 2,232 more rows
…
ps_data <- ps_data |> 
  left_join(state_abb_data, by = "state_abbr") |>
  select(-state_abbr) |> 
  rename(YEAR = "data_year",
         VALUE = "officer_state_total") |>
  mutate(VARIABLE = "officer_state_total")

ps_data

# A tibble: 1,938 × 4
    YEAR VALUE STATE                VARIABLE           
   <dbl> <dbl> <chr>                <chr>              
 1  1977   544 Alaska               officer_state_total
 2  1977  7380 Alabama              officer_state_total
 3  1977  3344 Arkansas             officer_state_total
 4  1977  6414 Arizona              officer_state_total
 5  1977 65596 California           officer_state_total
 6  1977  7337 Colorado             officer_state_total
 7  1977  6051 Connecticut          officer_state_total
 8  1977  4751 District of Columbia officer_state_total
 9  1977  1018 Delaware             officer_state_total
10  1977 24588 Florida              officer_state_total
# … with 1,928 more rows
…
poverty_rate_data <- poverty_rate_data |>
  filter(year_value != "2017") |> 
  filter(year_value != "2013 (18)") |>
  mutate(YEAR = str_sub(year_value, start = 1, end = 4)) |>
  select(-c(Number, Number_se, Percent_se, Total, year_value)) |>
  rename("VALUE" = Percent) |>
  mutate(VARIABLE = "Poverty_rate",
         YEAR = as.numeric(YEAR),
         VALUE = as.numeric(VALUE))

poverty_rate_data

# A tibble: 1,989 × 4
   STATE                VALUE  YEAR VARIABLE    
   <chr>                <dbl> <dbl> <chr>       
 1 Alabama               16    2018 Poverty_rate
 2 Alaska                13.1  2018 Poverty_rate
 3 Arizona               12.8  2018 Poverty_rate
 4 Arkansas              15.9  2018 Poverty_rate
 5 California            11.9  2018 Poverty_rate
 6 Colorado               9.1  2018 Poverty_rate
 7 Connecticut           10.2  2018 Poverty_rate
 8 Delaware               7.4  2018 Poverty_rate
 9 District of Columbia  14.7  2018 Poverty_rate
10 Florida               13.7  2018 Poverty_rate
# … with 1,979 more rows
…
crime_data <- crime_data_sep |>
  mutate(VARIABLE = "Viol_crime_count") |>
  rename("VALUE" = Violent_crime_total) |>
  rename("YEAR" = Year) |>
  select(YEAR,STATE, VARIABLE, VALUE)

crime_data

# A tibble: 1,938 × 4
    YEAR STATE   VARIABLE         VALUE
   <dbl> <chr>   <chr>            <dbl>
 1  1977 Alabama Viol_crime_count 15293
 2  1978 Alabama Viol_crime_count 15682
 3  1979 Alabama Viol_crime_count 15578
 4  1980 Alabama Viol_crime_count 17320
 5  1981 Alabama Viol_crime_count 18423
 6  1982 Alabama Viol_crime_count 17653
 7  1983 Alabama Viol_crime_count 16471
 8  1984 Alabama Viol_crime_count 17204
 9  1985 Alabama Viol_crime_count 18398
10  1986 Alabama Viol_crime_count 22616
# … with 1,928 more rows
…
Wrangling: Combining! (Donohue)

# combine after all that wrangling!
DONOHUE_DF <- bind_rows(dem_DONOHUE,
                        ue_rate_data,
                        poverty_rate_data,
                        crime_data,
                        population_data,
                        ps_data)
DONOHUE_DF

# A tibble: 20,247 × 4
    YEAR STATE   VARIABLE                    VALUE
   <dbl> <chr>   <chr>                       <dbl>
 1  1977 Alabama Black_Male_15_to_19_years  1.55  
 2  1977 Alabama Black_Male_20_to_39_years  3.04  
 3  1977 Alabama Other_Male_15_to_19_years  0.0178
 4  1977 Alabama Other_Male_20_to_39_years  0.0642
 5  1977 Alabama White_Male_15_to_19_years  3.58  
 6  1977 Alabama White_Male_20_to_39_years 11.1   
 7  1977 Alaska  Black_Male_15_to_19_years  0.163 
 8  1977 Alaska  Black_Male_20_to_39_years  0.968 
 9  1977 Alaska  Other_Male_15_to_19_years  1.12  
10  1977 Alaska  Other_Male_20_to_39_years  2.73  
# … with 20,237 more rows
…
LOTT_DF <- LOTT_DF |>
  mutate(TIME_0 = baseline_year,
         TIME_INF = censoring_year) |>
  filter(RTC_LAW_YEAR > TIME_0)

LOTT_DF <- LOTT_DF |>
  mutate(Viol_crime_rate_1k = (Viol_crime_count*1000)/Population,
         Viol_crime_rate_1k_log = log(Viol_crime_rate_1k),
         Population_log = log(Population))

LOTT_DF

# A tibble: 1,364 × 50
    YEAR STATE   Black…¹ Black…² Black…³ Black…⁴ Black…⁵ Black…⁶ Black…⁷ Black…⁸
   <dbl> <chr>     <dbl>   <dbl>   <dbl>   <dbl>   <dbl>   <dbl>   <dbl>   <dbl>
 1  1980 Alaska   0.264    0.443  0.201   0.116   0.0924 0.0264    0.297   0.695
 2  1980 Arizona  0.287    0.278  0.165   0.119   0.136  0.103     0.311   0.338
 3  1980 Arkans…  1.82     1.50   0.842   0.634   1.02   1.16      1.81    1.26 
 4  1980 Califo…  0.780    0.815  0.581   0.394   0.456  0.292     0.808   0.815
 5  1980 Colora…  0.352    0.388  0.245   0.172   0.164  0.103     0.377   0.467
 6  1980 Delawa…  1.87     1.68   1.14    0.783   0.952  0.670     1.81    1.36 
 7  1980 Distri…  6.53     7.54   5.18    3.89    6.10   4.15      6.32    6.40 
 8  1980 Florida  1.50     1.37   0.912   0.679   0.812  0.604     1.49    1.20 
 9  1980 Georgia  2.90     2.78   1.85    1.22    1.56   1.35      2.92    2.45 
10  1980 Hawaii   0.0930   0.215  0.0776  0.0253  0.0197 0.00738   0.180   0.656
# … with 1,354 more rows, 40 more variables: Black_Male_30_to_39_years <dbl>,
#   Black_Male_40_to_49_years <dbl>, Black_Male_50_to_64_years <dbl>,
#   Black_Male_65_years_and_over <dbl>, Other_Female_10_to_19_years <dbl>,
#   Other_Female_20_to_29_years <dbl>, Other_Female_30_to_39_years <dbl>,
#   Other_Female_40_to_49_years <dbl>, Other_Female_50_to_64_years <dbl>,
#   Other_Female_65_years_and_over <dbl>, Other_Male_10_to_19_years <dbl>,
#   Other_Male_20_to_29_years <dbl>, Other_Male_30_to_39_years <dbl>, …
…
