COGS 137 - 13-cs01-analysis
…
Model: plm (LOTT)

d_panel_LOTT <- pdata.frame(LOTT_DF, index = c("STATE", "YEAR"))

LOTT_OUTPUT <- plm(LOTT_fmla,
                   model = "within",
                   effect = "twoways",
                   data = d_panel_LOTT)

Model Output: LOTT

LOTT_OUTPUT_TIDY <- tidy(LOTT_OUTPUT, conf.int = 0.95)
LOTT_OUTPUT_TIDY

# A tibble: 41 × 7
   term                        estimate std.e…¹ stati…²  p.value conf.…³ conf.…⁴
   <chr>                          <dbl>   <dbl>   <dbl>    <dbl>   <dbl>   <dbl>
 1 RTC_LAWTRUE                 -0.0518   0.0162  -3.20  1.39e- 3 -0.0835 -0.0201
 2 White_Female_10_to_19_years  0.636    0.149    4.26  2.24e- 5  0.343   0.929 
 3 White_Female_20_to_29_years  0.00698  0.0670   0.104 9.17e- 1 -0.124   0.138 
 4 White_Female_30_to_39_years  0.261    0.0813   3.21  1.38e- 3  0.101   0.420 
 5 White_Female_40_to_49_years  0.0168   0.0814   0.206 8.37e- 1 -0.143   0.176 
 6 White_Female_50_to_64_years -0.459    0.0625  -7.35  3.60e-13 -0.582  -0.337 
 7 White_Female_65_years_and_…  0.156    0.0469   3.33  9.04e- 4  0.0641  0.248 
 8 White_Male_10_to_19_years   -0.583    0.143   -4.07  4.92e- 5 -0.863  -0.302 
 9 White_Male_20_to_29_years    0.0639   0.0623   1.03  3.05e- 1 -0.0582  0.186 
10 White_Male_30_to_39_years   -0.200    0.0859  -2.33  2.01e- 2 -0.368  -0.0315
# … with 31 more rows, and abbreviated variable names ¹​std.error, ²​statistic,
#   ³​conf.low, ⁴​conf.high
…
look at the stability of the coefficient estimates under perturbations of the data

we’ll focus on RTC_LAW

use resampling (here: remove one observation, see if estimates change == LOOCV - leave one out cross-validation): rsample::loo_cv

LOOCV: splits (Donohue)

## split data
set.seed(124)
DONOHUE_splits <- d_panel_DONOHUE |> loo_cv()
DONOHUE_splits

# Leave-one-out cross-validation 
# A tibble: 1,364 × 2
   splits           id        
   <list>           <chr>     
 1 <split [1363/1]> Resample1 
 2 <split [1363/1]> Resample2 
 3 <split [1363/1]> Resample3 
 4 <split [1363/1]> Resample4 
 5 <split [1363/1]> Resample5 
 6 <split [1363/1]> Resample6 
 7 <split [1363/1]> Resample7 
 8 <split [1363/1]> Resample8 
 9 <split [1363/1]> Resample9 
10 <split [1363/1]> Resample10
# … with 1,354 more rows
…
vif_LOTT <- vif(lm_LOTT)
vif_LOTT <- vif_LOTT |>
  as_tibble() |>
  cbind(names(vif_LOTT)) |>
  as_tibble()
colnames(vif_LOTT) <- c("VIF", "Variable")

# clean up names
vif_LOTT |> 
  mutate(Variable = str_replace(string = Variable,
                                pattern = "RTC_LAW",
                                replacement = "RTC_LAWTRUE")) |>
  arrange(desc(VIF))

# A tibble: 41 × 2
     VIF Variable                   
   <dbl> <chr>                      
 1  342. Black_Female_10_to_19_years
 2  327. Black_Male_10_to_19_years  
 3  251. Other_Male_40_to_49_years  
 4  227. Other_Female_40_to_49_years
 5  177. Other_Male_50_to_64_years  
 6  157. Other_Male_10_to_19_years  
 7  148. Other_Female_10_to_19_years
 8  134. Other_Female_50_to_64_years
 9  121. White_Female_10_to_19_years
10  120. White_Male_10_to_19_years  
# … with 31 more rows
…
